{
    "Config": {
        "OutputDir": ".",
        "InputDir": "../backend/dbus",
        "BusType": "Session",
        "DestName": "pub.geekcentral.Rockstar"
    },
    "Interfaces": [
        {
            "Interface": "pub.geekcentral.Rockstar.Alexa",
            "OutFile": "Alexa",
            "XMLFile": "pub.geekcentral.Rockstar.Alexa.xml",
            "ObjectName": "Alexa"
        },
        {
            "Interface": "pub.geekcentral.Rockstar.Settings",
            "OutFile": "Settings",
            "XMLFile": "pub.geekcentral.Rockstar.Settings.xml",
            "ObjectName": "Settings"
        },
        {

            "Interface": "pub.geekcentral.Rockstar.Weather",
            "OutFile": "Weather",
            "XMLFile": "pub.geekcentral.Rockstar.Weather.xml",
            "ObjectName": "Weather"
        },
        {

            "Interface": "pub.geekcentral.Rockstar.Rss",
            "OutFile": "Rss",
            "XMLFile": "pub.geekcentral.Rockstar.Rss.xml",
            "ObjectName": "Rss"
        },
        {

            "Interface": "pub.geekcentral.Rockstar.RssArticle",
            "OutFile": "RssArticle",
            "XMLFile": "pub.geekcentral.Rockstar.RssArticle.xml",
            "ObjectName": "RssArticle"
        },
        {
            "Interface": "org.mpris.MediaPlayer2",
            "OutFile": "Mpris",
            "XMLFile": "org.mpris.MediaPlayer2.xml",
            "ObjectName": "MPRIS"
        },
        {
            "Interface": "org.mpris.MediaPlayer2.Player",
            "OutFile": "Player",
            "XMLFile": "org.mpris.MediaPlayer2.xml",
            "ObjectName": "Player"
        },
        {
            "Interface": "org.mpris.MediaPlayer2.Playlists",
            "OutFile": "Playlists",
            "XMLFile": "org.mpris.MediaPlayer2.xml",
            "ObjectName": "Playlists"
        },
        {
            "Interface": "org.freedesktop.UPower",
            "OutFile": "UPower",
            "XMLFile": "org.freedesktop.UPower.xml",
            "ObjectName": "UPower"
        },
        {
            "Interface": "org.freedesktop.UPower.Device",
            "OutFile": "UPowerDevice",
            "XMLFile": "org.freedesktop.UPower.Device.xml",
            "ObjectName": "Device"
        },
        {
            "Interface": "org.freedesktop.DBus.ObjectManager",
            "OutFile": "ObjectManager",
            "XMLFile": "org.freedesktop.DBus.ObjectManager.xml",
            "ObjectName": "ObjectManager"
        },
        {
            "Interface": "org.freedesktop.UDisks2.Manager",
            "OutFile": "UDisks2Manager",
            "XMLFile": "udisks2.xml",
            "ObjectName": "Manager"
        },
        {
            "Interface": "org.freedesktop.UDisks2.Drive",
            "OutFile": "UDisks2Drive",
            "XMLFile": "udisks2.xml",
            "ObjectName": "Drive"
        },
        {
            "Interface": "org.freedesktop.UDisks2.Block",
            "OutFile": "UDisks2Block",
            "XMLFile": "udisks2.xml",
            "ObjectName": "Block"
        },
        {
            "Interface": "org.freedesktop.UDisks2.Filesystem",
            "OutFile": "UDisks2Filesystem",
            "XMLFile": "udisks2.xml",
            "ObjectName": "Filesystem"
        }
    ]
}
